fpga/spi.vcd
$comment Generated by nMigen $end
$date 2020-03-22 03:35:05.175903 $end
$timescale 100 ps $end
$scope module top $end
$var wire 1 0 clk $end
$var wire 1 1 rst $end
$var wire 3 2 sclk_reg $end
$var wire 3 3 ssel_reg $end
$var wire 1 4 ssel_active $end
$var wire 2 5 mosi_reg $end
$var wire 4 6 counter $end
$var wire 8 7 tx_buffer $end
$var wire 8 8 rx_buffer $end
$var wire 8 9 data_in $end
$var wire 1 a spi_sclk $end
$var wire 1 b spi_ssel $end
$var wire 1 c spi_mosi $end
$var wire 1 d sclk_risingedge $end
$var wire 8 e data_out $end
$var wire 1 f mosi $end
$var wire 1 10 ssel_risingedge $end
$var wire 1 11 sclk_fallingedge $end
$var wire 1 12 ssel_fallingedge $end
$var wire 1 13 spi_miso $end
$upscope $end
$enddefinitions $end
#0
$dumpvars
00
01
b0 2
b0 3
04
b0 5
b0 6
b0 7
b0 8
b0 9
1a
1b
0c
0d
b11111111 e
0f
010
011
012
013
$end
#50
10
b1 3
b11111111 7
14
b1 2
113
#100
00
#150
10
b11 3
b11 2
1d
110
#200
00
#250
10
b111 3
04
b111 2
b1 6
0d
010
#300
00
#349
10
b0 6
#399
00
#449
10
#499
00
#549
10
#600
00
#650
10
#700
00
#750
10
#800
00
#850
10
#900
00
#950
10
#1000
00
#1050
10
#1100
00
#1150
10
#1200
00
#1250
10
#1300
00
#1350
10
#1400
00
#1450
10
#1500
00
#1550
10
#1600
00
#1650
10
#1700
00
#1750
10
#1800
00
#1850
10
#1900
00
#1950
10
#2000
00
#2050
10
#2100
00
#2150
10
#2200
00
#2250
10
#2300
00
#2350
10
#2400
00
#2450
10
#2500
00
#2550
10
#2600
00
#2650
10
#2700
00
#2750
10
#2800
00
#2850
10
#2900
00
#2950
10
#3000
00
#3050
10
#3100
00
#3150
10
#3200
00
#3250
10
#3300
00
#3350
10
#3400
00
#3450
10
#3500
00
#3550
10
#3600
00
#3650
10
#3700
00
#3750
10
#3800
00
#3850
10
#3900
00
#3950
10
#4000
00
#4050
10
#4100
00
#4150
10
#4200
00
#4250
10
#4300
00
#4350
10
#4400
00
#4450
10
#4500
00
#4550
10
#4600
00
#4650
10
#4700
00
#4750
10
#4800
00
#4850
10
#4900
00
#4950
10
#5000
00
#5050
10
#5100
00
#5150
10
#5200
00
#5249
10
#5299
00
#5349
10
#5399
00
#5449
10
#5499
00
#5549
10
#5599
00
#5649
10
#5699
00
#5749
10
#5799
00
#5849
10
#5899
00
#5949
10
#5999
00
#6049
10
#6099
00
#6149
10
#6199
00
#6249
10
#6299
00
#6349
10
#6399
00
#6449
10
#6499
00
#6549
10
#6599
00
#6649
10
#6699
00
#6749
10
#6799
00
#6849
10
#6899
00
#6949
10
#6999
00
#7049
10
#7099
00
#7149
10
#7199
00
#7249
10
#7299
00
#7349
10
#7399
00
#7449
10
#7499
00
#7549
10
#7599
00
#7649
10
#7699
00
#7749
10
#7799
00
#7849
10
#7899
00
#7949
10
#7999
00
#8049
10
#8099
00
#8149
10
#8199
00
#8249
10
#8299
00
#8349
10
#8399
00
#8449
10
#8499
00
#8549
10
#8599
00
#8649
10
#8699
00
#8749
10
#8799
00
#8849
10
#8899
00
#8949
10
#8999
00
#9049
10
#9099
00
#9149
10
#9199
00
#9249
10
#9299
00
#9349
10
#9399
00
#9449
10
#9499
00
#9549
10
#9599
00
#9649
10
#9699
00
#9749
10
#9799
00
#9849
10
#9899
00
#9949
10
#9999
00
#10000
0b
#10049
10
b110 3
#10099
00
#10149
10
b100 3
112
#10199
00
#10249
10
b0 3
14
012
